Topic 3: Roundup and recap – Data Science for Health and Biomedical Sciences
…
the “equal to” comparison operator needs double ==

to use inverted commas (““) for non-numbers

seselect()

select() lets you choose which columns to select

In the example below we have chosen to select only 4 variables from our dataset and we have also changed the order in which they appear.

gapminder %>%
  select(country, year, pop, lifeExp)

# A tibble: 1,704 × 4
   country      year      pop lifeExp
   <fct>       <int>    <int>   <dbl>
 1 Afghanistan  1952  8425333    28.8
 2 Afghanistan  1957  9240934    30.3
 3 Afghanistan  1962 10267083    32.0
 4 Afghanistan  1967 11537966    34.0
 5 Afghanistan  1972 13079460    36.1
 6 Afghanistan  1977 14880372    38.4
 7 Afghanistan  1982 12881816    39.9
 8 Afghanistan  1987 13867957    40.8
 9 Afghanistan  1992 16317921    41.7
10 Afghanistan  1997 22227415    41.8
# ℹ 1,694 more rows
…
And select() has a sister function called rename(), that can be used to rename columns without removing the ones you don’t list, e.g.:

gapminder %>%
  rename(population = pop, life_expectancy = lifeExp)

mutate()

mutate() allows you to add a column or update an existing column

In the example below we have created a new column called pop_millions so that we can display the population as a decimal number of millions.

gapminder %>%
  mutate(pop_millions = pop/1000000)

# A tibble: 1,704 × 7
   country     continent  year lifeExp      pop gdpPercap pop_millions
   <fct>       <fct>     <int>   <dbl>    <int>     <dbl>        <dbl>
 1 Afghanistan Asia       1952    28.8  8425333      779.         8.43
 2 Afghanistan Asia       1957    30.3  9240934      821.         9.24
 3 Afghanistan Asia       1962    32.0 10267083      853.        10.3 
 4 Afghanistan Asia       1967    34.0 11537966      836.        11.5 
 5 Afghanistan Asia       1972    36.1 13079460      740.        13.1 
 6 Afghanistan Asia       1977    38.4 14880372      786.        14.9 
 7 Afghanistan Asia       1982    39.9 12881816      978.        12.9 
 8 Afghanistan Asia       1987    40.8 13867957      852.        13.9 
 9 Afghanistan Asia       1992    41.7 16317921      649.        16.3 
10 Afghanistan Asia       1997    41.8 22227415      635.        22.2 
# ℹ 1,694 more rows
…
Useful for:

combining with group_by() to perform grouped calculations

group_by()

group_by() lets you choose how you want the variables in your dataset to be grouped so that you can perform operations (such as sum() or mean()) on these groups.

In the example below we have grouped our data by the variable year. Notice that the output to this chunk of code looks no different to how it would look if we just ran gapminderwithout any grouping. This is because the effects of group_by() are only noticeable when we start performing operations.

gapminder %>%
  group_by(year)

# A tibble: 1,704 × 6
# Groups:   year [12]
   country     continent  year lifeExp      pop gdpPercap
   <fct>       <fct>     <int>   <dbl>    <int>     <dbl>
 1 Afghanistan Asia       1952    28.8  8425333      779.
 2 Afghanistan Asia       1957    30.3  9240934      821.
 3 Afghanistan Asia       1962    32.0 10267083      853.
 4 Afghanistan Asia       1967    34.0 11537966      836.
 5 Afghanistan Asia       1972    36.1 13079460      740.
 6 Afghanistan Asia       1977    38.4 14880372      786.
 7 Afghanistan Asia       1982    39.9 12881816      978.
 8 Afghanistan Asia       1987    40.8 13867957      852.
 9 Afghanistan Asia       1992    41.7 16317921      649.
10 Afghanistan Asia       1997    41.8 22227415      635.
# ℹ 1,694 more rows
…
the value to the left of the = is the new name for your column and could be called anything

left_join()

left_join() allows you to combine two datasets

In the example below we are joining the gapminder tibble to another tibble we can access directly from the gapminder package, the country_codes data frame, in order to add the ISO country codes.

gapminder %>%
  left_join(country_codes)

Joining with `by = join_by(country)`

# A tibble: 1,704 × 8
   country     continent  year lifeExp      pop gdpPercap iso_alpha iso_num
   <chr>       <fct>     <int>   <dbl>    <int>     <dbl> <chr>       <int>
 1 Afghanistan Asia       1952    28.8  8425333      779. AFG             4
 2 Afghanistan Asia       1957    30.3  9240934      821. AFG             4
 3 Afghanistan Asia       1962    32.0 10267083      853. AFG             4
 4 Afghanistan Asia       1967    34.0 11537966      836. AFG             4
 5 Afghanistan Asia       1972    36.1 13079460      740. AFG             4
 6 Afghanistan Asia       1977    38.4 14880372      786. AFG             4
 7 Afghanistan Asia       1982    39.9 12881816      978. AFG             4
 8 Afghanistan Asia       1987    40.8 13867957      852. AFG             4
 9 Afghanistan Asia       1992    41.7 16317921      649. AFG             4
10 Afghanistan Asia       1997    41.8 22227415      635. AFG             4
# ℹ 1,694 more rows
…
